1068,v2ex.com
572,flvto.biz
1673,lds.org
2313,moddb.com
5270,ajc.com
313,daum.net
2726,gamewith.jp
8447,femmevetement.fr
8389,revolico.com
7927,gazeteoku.com
8994,pjmedia.com
515,olx.pl
5967,soha.vn
8628,rocket-league.com
2832,smartsheet.com
627,eventbrite.com
25,google.com.br
6816,meteo.pl
2118,indeed.co.uk
8942,freshpornclips.com
81,adobe.com
797,4pda.ru
6062,thepaper.cn
969,labanquepostale.fr
85,googleusercontent.com
6486,supersport.com
277,leboncoin.fr
2382,ldblog.jp
1963,whitepages.com
8291,kathimerini.gr
118,google.co.ve
6694,oecd.org
6976,mybigcommerce.com
6900,calciomercato.com
9920,data18.com
3020,northwestern.edu
2145,passinst.com
500,cbssports.com
6797,watchmygirlfriend.tv
1341,wondershare.com
8419,bakufu.jp
9107,gomlab.com
8384,travelandleisure.com
8749,torrent-series24.com
4028,istruzione.it
2012,gdz.ru
7221,amiami.com
9000,wikihow.it
9465,fixsub.com
8458,strana.ua
1200,cookpad.com
3204,studentdoctor.net
3585,drupal.org
4483,interpals.net
225,gfycat.com
4808,xehoiviet.com
5437,58pic.com
8754,vatandanhaber.com
1652,thewildcard.com
7053,vvvdj.com
3864,tamilwin.com
7189,notepad-plus-plus.org
6629,apartmenthomeliving.com
4683,baseball-reference.com
5406,sunmaker.com
7536,prisjakt.nu
716,moneycontrol.com
485,ebay.it
3239,narvar.com
5891,morningpost.com.cn
6635,newrelic.com
4389,pushedwebnews.com
3792,travelocity.com
2383,arabi21.com
4906,gigafile.nu
948,sporx.com
4047,unisa.ac.za
431,taboola.com
5867,dazn.com
7342,diigo.com
2360,sportbox.ru
8918,betensured.com
3288,solidfiles.com
2514,infoseek.co.jp
6213,binance.com
7857,bnpparibasfortis.be
5799,mobikwik.com
6649,alibaba.ir
4412,cn163.net
3619,e-hentai.org
5197,thinkgeek.com
2445,itslearning.com
6821,beforward.jp
4341,scholarships.gov.in
227,google.com.pe
2170,qafqazinfo.az
7235,promodj.com
8638,elfarandi.com
3224,looper.com
5475,feiren.com
645,axzsd.pro
2671,submarino.com.br
8445,elderscrollsonline.com
6838,prevention.com
4141,privalia.com
1498,pnc.com
6695,ah-me.com
7763,airarabia.com
5327,hq-sex-tube.com
1744,redirect2719.ws
8090,masteringchemistry.com
1058,costco.com
5534,rabbitpre.com
8784,skiles.link
4657,jumia.ma
8381,al3omk.com
6834,24ur.com
2757,conservativefighters.com
291,aliyun.com
2472,diaforetiko.gr
507,slickdeals.net
7355,mybroadband.co.za
1783,nyu.edu
1354,jawabkom.com
1726,internetportalne.ws
2789,derstandard.at
9101,sexrussia.tv
9386,connpass.com
5965,feiyang.com
4137,fushaar.com
7139,hometalk.com
5859,babla.ru
6351,flyme.cn
6012,elle.com
8295,usa.gov
4524,immowelt.de
9955,electrek.co
8339,tchibo.de
5087,onenote.com
8275,torentor.co
3940,takealot.com
7461,xmoviesforyou.com
2595,xxlargepop.com
424,ntd.tv
4016,gsis.gr
2447,ziprecruiter.com
1416,last.fm
6147,lamar.edu
1705,zerohedge.com
7328,onlineclock.net
12,google.co.jp
815,ebay.in
3311,qcloud.com
4614,rozblog.com
5240,searchdconvertnow.com
3736,rivals.com
2443,duden.de
4390,pelisplanet.com
7554,jobs.net
8314,advserver.xyz
5801,huffingtonpost.ca
8150,adshort.co
7719,bitcomine.net
1417,crhoy.com
5600,goal.in.th
7515,stirileprotv.ro
3249,quasargaming.com
9960,mixer.com
6906,bitfun.co
8675,pornoxyu.me
3432,litres.ru
2427,123moviesfreez.com
9011,bose.com
159,roblox.com
8899,p9a.space
46,twitch.tv
5531,slashdot.org
3925,shooshtime.com
551,filehippo.com
6346,pullandbear.com
6755,nespresso.com
7872,astrologyzone.com
222,people.com.cn
418,dictionary.com
5322,instantcheckmate.com
3471,raspberrypi.org
4058,thepiratefilmeshd.com
4216,vsetop.com
8884,blogcms.jp
138,fbcdn.net
3376,shatel.ir
9532,fbr.gov.pk
4529,livemint.com
7434,dasoertliche.de
9771,techgig.com
4226,livechatinc.com
4602,pensador.com
3105,typepad.com
65,amazon.co.jp
5128,cainiao.com
4133,easeus.com
6447,immonet.de
3064,light-dark.net
9944,rakuten.de
3191,crowdworks.jp
7702,musicaq.biz
6484,guenstigkleidung.de
8853,pasted.co
8249,guidechem.com
7301,sendpulse.com
866,sputniknews.com
563,addthis.com
79,espn.com
8788,myquickconverter.com
4237,milenio.com
8874,copart.com
2317,brainyquote.com
4145,memurlar.net
4328,technews.tw
2557,lamoda.ru
6621,futurism.com
5400,thepointsguy.com
9854,pireaspress.gr
6193,5giay.vn
7076,izito.co.in
5679,haqqin.az
4898,youzan.com
9519,yupoo.com
249,google.ie
9353,livescore.in
6440,notebooksbilliger.de
5279,torlock.com
6907,vidnow.to
470,themeforest.net
3767,onlinedown.net
4292,poki.com
5811,dingtalk.com
6510,happy-porn.com
6548,mmafighting.com
2896,brasilescola.uol.com.br
656,trackingclick.net
6244,audacityteam.org
1105,onclickads.net
6672,care.com
8478,datafilehost.com
7613,alza.sk
6158,real.de
6754,dll-files.com
9432,symfony.com
9508,kcl.ac.uk
8698,shabakaty.com
9078,masaladesi.com
8481,atlas.sk
1976,leparisien.fr
2586,consultant.ru
4253,xcafe.com
7081,subf2m.co
3989,menclub.hk
7251,phun.org
183,douyu.com
6282,qoo10.jp
4026,piaotian.com
8841,cloudconvert.com
8226,bnext.com.tw
1216,codecanyon.net
1154,idntimes.com
4588,weather-guru.net
179,uol.com.br
491,springer.com
5172,estream.to
6049,zaycev.net
9146,wow.com
1624,livetv.sx
2063,google.tt
3503,sulekha.com
3689,google.sn
2830,90skidsonly.com
1775,overstock.com
9952,dref.pw
7369,vietcombank.com.vn
8567,centrum.sk
5036,citethisforme.com
6445,rte.ie
1737,androidauthority.com
8078,coinpot.co
9808,eljur.ru
9034,unblocked.lol
5963,watch2gether.com
6437,winxdvd.com
8254,fullerton.edu
8796,pngimg.com
4942,datacamp.com
2148,fasttds.bid
1097,worldstarhiphop.com
7262,dunyanews.tv
9794,tatadocomo.com
9485,ricardoeletro.com.br
1822,nessma.tv
3905,meow-share.com
7893,dengekionline.com
4935,huxiu.com
6814,bunnings.com.au
859,googlevideo.com
9272,saude.gov.br
2309,dailythanthi.com
513,tutorialspoint.com
8581,h6y654wgfdhd.com
9855,diarioinenglish.com
3980,freenet.de
5390,hackerearth.com
7514,kino-max.com
4461,padsdel.com
3658,classdojo.com
4320,gopro.com
8377,svtplay.se
1899,terraclicks.com
1489,radiorage.com
2474,ascii.jp
6307,caasimada.net
3150,macworld.co.uk
5302,webmasterplan.com
2266,pch.com
9415,adultwork.com
9751,chevrolet.com
6246,xn--i1abbnckbmcl9fb.xn--p1ai
7884,crazygames.com
4872,publinews.gt
1642,mymovies.it
544,xda-developers.com
9200,vercanalestv.com
5710,telegraf.com.ua
5907,kemenkeu.go.id
341,zendesk.com
4591,vomwe.pro
35,yahoo.co.jp
3953,independent.ie
6583,downloadtwittervideo.com
9824,thinkphp.cn
7999,applicationlands.com
3542,nymag.com
7499,me.me
3316,uc.cn
8559,omelete.uol.com.br
6911,newsbeast.gr
2559,unity.com
1880,google.com.uy
7530,truefilen32.com
9848,waze.com
5655,turktelekom.com.tr
4380,appfolio.com
1102,cdstm.cn
6925,lapagina.com.sv
7730,talkingpointsmemo.com
4031,bbcgoodfood.com
9872,minedu.gob.pe
1224,youku.com
4255,facenama.com
6235,agame.com
1363,habrahabr.ru
3397,arte.tv
7401,comicbus.com
6697,play.pl
5787,support.wordpress.com
18,sohu.com
4561,thermofisher.com
4021,panasonic.jp
9863,tisub.biz
3869,plos.org
6152,skoob.com.br
983,dream.co.id
4536,hyptas.com
2399,kshow123.net
922,primevideo.com
4881,eventbrite.co.uk
9879,bitpetite.com
7528,monova.to
2217,xero.com
1107,rozetka.com.ua
2521,tamin.ir
802,nbcnews.com
1497,netteller.com
741,pchome.com.tw
2457,nbc.com
3126,eltiempo.com
7203,hindilinks4u.to
228,metropcs.mobi
2025,soccerway.com
6104,theculturetrip.com
1186,nydailynews.com
2691,eurosport.fr
6705,ufrgs.br
2112,1592878.com
7919,ufsc.br
9344,wipo.int
6680,rogers.com
5866,gewinnsteigern.com
7236,vlxx.tv
4156,golem.de
2530,akairan.com
4051,teespring.com
3148,lazada.vn
5193,reklama5.mk
3407,futbin.com
3700,ameli.fr
6502,cli.im
6279,imageprocessingcode.com
1551,ed.gov
6034,antpedia.com
2230,craigslist.ca
147,daikynguyenvn.com
8027,undp.org
667,goo.gl
8840,regmarkets.ru
4685,ravelry.com
5711,skiddle.com
6604,playbuzz.com
5380,vkmag.com
2215,shadbase.com
1445,wisc.edu
8491,forumhouse.ru
712,autodesk.com
748,inadequal.com
550,khanacademy.org
2046,britishcouncil.org
4316,swzz.xyz
4527,monstercrawler.com
5931,cartoonmad.com
9680,jora.com
8119,8btc.com
6027,mergedocsonline.com
731,dafont.com
5952,svt.se
1349,tempo.co
7829,rockauto.com
9945,math-aids.com
6884,jetlaggin.com
8799,seatguru.com
5023,al-marsd.com
1465,mediawhirl.net
6547,knaben.tk
9131,torrentor.org
8387,ucsf.edu
5563,career.ru
5248,hs.fi
4507,mingpao.com
7400,follamigos.com
8956,filezilla-project.org
9869,isro.gov.in
5119,tfreeca22.com
5792,underarmour.com
7681,qip.ru
6670,infokosova.org
6470,stockcharts.com
93,txxx.com
3596,education.com
9498,topnaz.com
7420,arga-mag.com
8604,autoplius.lt
6784,freevideo.cz
8297,aetna.com
5268,multiurok.ru
2709,online-life.club
6422,queensu.ca
2288,actcorp.in
9363,metaffiliation.com
3440,alamy.com
4610,goldesel.to
6990,weightwatchers.com
3784,0123movies.com
4384,justjared.com
5287,meinestadt.de
718,discover.com
3499,ilcorsaronero.info
7517,bitdefender.com
1602,fastpic.ru
8801,groupon.de
7592,jobartis.com
7500,google.com.mt
9292,safecleanredir.com
2925,solvusoft.com
5039,diynetwork.com
5214,mobioffertrck.com
5179,stardoll.com
2909,coco01.net
5889,xiazaiba.com
7923,dlroozane.com
5347,b2b.cn
8683,finishline.com
3637,vrbo.com
144,chase.com
90,so.com
1931,deutsche-bank.de
6550,nat.gov.tw
7059,connexus.com
3938,nairabet.com
2857,quizalert.com
4702,vultr.com
7058,yam.com
6494,mp.gov.in
6327,adevarul.ro
