7459	http://powerbi.com
6285	http://vista.ir
536	http://cambridge.org
1884	http://eol.cn
6037	http://turkiyehabermerkezi.com
8541	http://8591.com.tw
2033	http://pornhd.com
7427	http://sta.sh
8986	http://ucr.edu
5540	http://peopleperhour.com
1762	http://directv.com
7582	http://hewitt.com
8391	http://it168.com
7932	http://69tubesex.com
3472	http://thefuncoolstuff.com
2672	http://southcn.com
4739	http://meneame.net
6710	http://bwin.com
6048	http://pcgames.com.cn
1757	http://4th3d48.com
3013	http://coupons.com
4107	http://jpnn.com
1077	http://qualtrics.com
5551	http://virtualbox.org
3756	http://origo.hu
2016	http://easyjet.com
5549	http://duowan.com
1208	http://clien.net
9003	http://instacart.com
3331	http://xozilla.com
60	http://imdb.com
8311	http://indavideo.hu
234	http://kakaku.com
9935	http://easy-sexxx.com
9724	http://skyscanner.es
8032	http://fox-fan.ru
8	http://reddit.com
8284	http://bestgfvideos.com
1748	http://olx.co.id
9631	http://allo.ua
5027	http://footyroom.com
1599	http://oup.com
1312	http://streamcloud.eu
2055	http://ria.com
8395	http://oantagonista.com
6317	http://internethaber.com
5927	http://lifehacker.jp
9438	http://thebest.gr
6766	http://watchepisodeseries.com
2533	http://cars.com
