1,google.com
2,youtube.com
3,facebook.com
4,baidu.com
5,wikipedia.org
6,yahoo.com
7,google.co.in
8,reddit.com
9,qq.com
10,taobao.com
11,amazon.com
12,google.co.jp
13,twitter.com
14,tmall.com
15,live.com
16,vk.com
17,instagram.com
18,sohu.com
19,sina.com.cn
20,jd.com
21,weibo.com
22,360.cn
23,google.de
24,google.co.uk
25,google.com.br
26,google.fr
27,google.ru
28,linkedin.com
29,list.tmall.com
30,google.com.hk
31,yandex.ru
32,google.it
33,netflix.com
34,google.es
35,yahoo.co.jp
36,t.co
37,google.com.mx
38,pornhub.com
39,google.ca
40,ebay.com
41,alipay.com
42,xvideos.com
43,bing.com
44,imgur.com
45,msn.com
46,twitch.tv
47,apple.com
48,wordpress.com
49,aliexpress.com
50,microsoft.com
51,office.com
52,ok.ru
53,mail.ru
54,tumblr.com
55,hao123.com
56,microsoftonline.com
57,livejasmin.com
58,onclkds.com
59,stackoverflow.com
60,imdb.com
61,csdn.net
62,blogspot.com
63,github.com
64,google.com.au
65,amazon.co.jp
66,youth.cn
67,google.com.tw
68,google.com.tr
69,paypal.com
70,google.pl
71,whatsapp.com
72,wikia.com
73,google.co.id
74,pinterest.com
75,popads.net
76,xhamster.com
77,detail.tmall.com
78,gmw.cn
79,espn.com
80,nicovideo.jp
81,adobe.com
82,google.com.ar
83,coccoc.com
84,amazon.in
85,googleusercontent.com
86,dropbox.com
87,amazon.de
88,diply.com
89,google.com.ua
90,so.com
91,google.com.pk
92,cnn.com
93,txxx.com
94,xnxx.com
95,uptodown.com
96,bongacams.com
97,tianya.cn
98,amazon.co.uk
99,pixnet.net
100,savefrom.net
101,bbc.co.uk
102,thepiratebay.org
103,bbc.com
104,soso.com
105,google.com.sa
106,craigslist.org
107,google.co.th
108,rakuten.co.jp
109,google.com.eg
110,naver.com
111,google.nl
112,fc2.com
113,amazonaws.com
114,ask.com
115,soundcloud.com
116,nytimes.com
117,google.co.za
118,google.co.ve
119,booking.com
120,google.co.kr
121,mozilla.org
122,quora.com
123,ettoday.net
124,thestartmagazine.com
125,dailymotion.com
126,stackexchange.com
127,zhihu.com
128,salesforce.com
129,onlinesbi.com
130,detik.com
131,china.com
132,theguardian.com
133,tribunnews.com
134,blogger.com
135,ebay.de
136,vimeo.com
137,flipkart.com
138,fbcdn.net
139,google.com.sg
140,google.gr
141,spotify.com
142,slideshare.net
143,adf.ly
144,chase.com
145,google.com.ph
146,google.se
147,daikynguyenvn.com
148,ebay.co.uk
149,chaturbate.com
150,nih.gov
151,blastingnews.com
152,cnet.com
153,avito.ru
154,google.be
155,xinhuanet.com
156,providr.com
157,mediafire.com
158,steamcommunity.com
159,roblox.com
160,google.cn
161,openload.co
162,google.az
163,globo.com
164,redonetype.com
165,vice.com
166,aparat.com
167,dailymail.co.uk
168,google.com.co
169,softonic.com
170,pinimg.com
171,indeed.com
172,alibaba.com
173,force.com
174,buzzfeed.com
175,doubleclick.net
176,iwanttodeliver.com
177,google.co.ao
178,google.com.ng
179,uol.com.br
180,google.at
181,utorrent.com
182,redd.it
183,douyu.com
184,washingtonpost.com
185,ladbible.com
186,deviantart.com
187,babytree.com
188,sogou.com
189,twimg.com
190,1688.com
191,bet365.com
192,wikihow.com
193,w3schools.com
194,godaddy.com
195,etsy.com
196,slack.com
197,steampowered.com
198,google.cz
199,google.ch
200,tokopedia.com
204,amazon.it
208,abs-cbn.com
211,google.no
212,google.ae
222,people.com.cn
223,trello.com
228,metropcs.mobi
229,onlinevideoconverter.com
230,china.com.cn
240,cpm20.com
247,bet9ja.com
250,instructure.com
255,files.wordpress.com
258,hclips.com
262,huffingtonpost.com
268,streamable.com
270,livejournal.com
272,foxnews.com
273,codeonclick.com
279,caijing.com.cn
289,wordreference.com
291,aliyun.com
293,gostream.is
294,livedoor.com
296,google.co.il
297,performanceadexchange.com
300,irctc.co.in
303,amazon.es
304,aol.com
311,archive.org
318,businessinsider.com
321,telegram.org
326,subject.tmall.com
329,bestbuy.com
335,google.kz
338,1337x.to
340,gmx.net
341,zendesk.com
343,amazon.ca
344,flickr.com
348,asos.com
350,sourceforge.net
353,hola.com
354,coinmarketcap.com
360,blpmovies.com
365,noaa.gov
368,ouo.io
380,onet.pl
383,reverso.net
397,ups.com
405,capitalone.com
409,convert2mp3.net
420,siteadvisor.com
424,ntd.tv
425,goo.ne.jp
426,spiegel.de
427,conservativetribune.com
431,taboola.com
432,okdiario.com
438,google.co.nz
439,uidai.gov.in
445,doublepimp.com
446,mercadolibre.com.ar
450,homedepot.com
452,media.tumblr.com
454,intuit.com
457,taringa.net
458,hatena.ne.jp
459,nownews.com
460,perfecttoolmedia.com
463,t-online.de
465,wix.com
470,themeforest.net
480,myanimelist.net
482,ytimg.com
488,urbandictionary.com
493,kooora.com
495,playstation.com
496,qiita.com
502,ebay.com.au
506,gamer.com.tw
514,alsbbora.com
517,chatwork.com
518,ultimate-guitar.com
521,ebc.net.tw
522,163.com
524,bittrex.com
530,biobiochile.cl
539,ouedkniss.com
541,citi.com
551,filehippo.com
554,4dsply.com
566,boredpanda.com
570,cnzz.com
577,chip.de
578,thefreedictionary.com
581,emol.com
584,bleacherreport.com
587,telewebion.com
596,sabq.org
598,umblr.com
599,easypdfcombine.com
609,souq.com
618,pulseonclick.com
623,rumble.com
627,eventbrite.com
631,ewatchseries.to
636,lemonde.fr
638,gogoanime.io
641,webex.com
646,investopedia.com
649,sportbible.com
657,azlyrics.com
661,blogfa.com
668,hespress.com
678,exoclick.com
679,blog.me
687,wp.com
694,segmentfault.com
703,stanford.edu
704,expedia.com
715,thewhizmarketing.com
716,moneycontrol.com
718,discover.com
719,hotels.com
730,sarkariresult.com
732,disqus.com
735,gov.uk
736,fanpage.gr
738,grammarly.com
742,eksisozluk.com
744,innfrad.com
751,ca.gov
756,cdiscount.com
762,perfectgirls.net
766,macys.com
774,solarmoviez.to
775,fatosdesconhecidos.com.br
778,reallifecam.com
784,adhoc2.net
788,intoday.in
789,inven.co.kr
791,porn.com
795,europa.eu
796,blibli.com
797,4pda.ru
800,oschina.net
801,beytoote.com
803,liveadexchanger.com
804,viva.co.id
807,duolingo.com
808,jw.org
815,ebay.in
817,timeanddate.com
819,crunchyroll.com
822,dmm.com
823,t.me
824,ea.com
829,issuu.com
831,nikkeibp.co.jp
833,lazada.com.my
834,clipconverter.cc
835,donga.com
842,hawaaworld.com
846,voyeurhit.com
848,fanfiction.net
850,realtor.com
853,el-nacional.com
858,instructables.com
862,state.gov
866,sputniknews.com
867,hootsuite.com
868,google.com.my
871,mashable.com
873,snapdeal.com
876,norton.com
877,usnews.com
880,zone-telechargement.ws
893,visualstudio.com
894,artstation.com
896,deviantart.net
899,bankmellat.ir
902,php.net
914,sapo.pt
926,avg.com
927,nocookie.net
932,frtyg.com
940,askubuntu.com
942,yourporn.sexy
949,lowes.com
952,c-4fambt.com
957,informationvine.com
962,td.com
969,labanquepostale.fr
970,secure-surf.net
984,infobae.com
985,tmz.com
986,primewire.ag
988,caixa.gov.br
997,dhgate.com
1003,m62-genreal.com
1054,abc.net.au
1089,fb.ru
1110,yjc.ir
1118,united.com
1149,3sk.tv
1212,urdupoint.com
1214,kissasian.ch
1302,eroterest.net
1331,mysearch.com
1362,gumtree.com.au
1371,pinterest.de
1417,crhoy.com
1468,nvidia.com
1496,ew.com
1507,fmovies.se
1553,triumph.tmall.com
1570,hltv.org
1581,yeniakit.com.tr
1584,udacity.com
1692,pearsoncmg.com
1707,jalopnik.com
1822,nessma.tv
1830,sagepub.com
1840,spankwire.com
1935,fast-torrent.ru
1961,zozo.jp
1975,dummies.com
2013,prensalibre.com
2033,pornhd.com
2078,eobot.com
2107,who.int
2112,1592878.com
2118,indeed.co.uk
2122,xing.al
2142,mihanblog.com
2181,icolor.com.cn
2225,heavy-r.com
2227,gemius.com
2280,vppgamingnetwork.com
2305,film2movie.co
2317,brainyquote.com
2325,sarahah.com
2331,akoam.com
2416,torrent.cd
2429,mydala.com
2510,hashflare.io
2516,zezoomglobal.com
2550,planetsuzy.org
2568,iobit.com
2668,googlegroups.com
2670,worldcat.org
2740,tdbank.com
2762,viralhumour.online
2938,dealabs.com
2951,infojobs.net
3079,motosal.net
3081,money.pl
3093,vivud.com
3201,samsonite.tmall.com
3219,citrixonline.com
3423,bazos.sk
3457,90min.com
3578,google.cg
3581,acm.org
3586,bigmir.net
3606,mypearson.com
3617,convertmp3.io
3698,garanti.com.tr
3839,serebii.net
3870,freetvsoft.com
3909,marinetraffic.com
3931,pubted.com
4024,bankia.es
4027,foxsportsgo.com
4059,nps.gov
4107,jpnn.com
4178,cybersource.com
4227,bobaedream.co.kr
4259,footmercato.net
4352,sling.com
4371,2nn.jp
4543,mediamarkt.es
4550,steamgifts.com
4582,goody25.com
4600,segundamano.mx
4647,as2tv.com
4720,tvsubtitles.net
4749,theparentingvillage.com
4763,animefreak.tv
4788,suamusica.com.br
4908,hirunews.lk
4971,tripadvisor.ca
4977,kordating.com
4987,vagaro.com
5007,nts.org.pk
5094,qmov.net
5112,sakura.ad.jp
5183,movistarplus.es
5215,selfridges.com
5316,dl-xvideos.com
5323,apnetv.tv
5327,hq-sex-tube.com
5349,oriflame.com
5363,uw.edu
5450,dba.dk
5480,ferret-plus.com
5547,shoptime.com.br
5549,duowan.com
5555,jerk.porn
5594,sdna.gr
5603,tuoitre.vn
5679,haqqin.az
5729,j-cast.com
5761,insightsonindia.com
5799,mobikwik.com
5801,huffingtonpost.ca
5845,rtl.fr
5856,huntington.com
5865,zap2it.com
5871,lenovo.com.cn
5957,r-aly.ru
6043,cybozulive.com
6056,lilo.org
6124,hmyquickconverter.com
6127,pnas.org
6133,2ch-c.net
6140,malaysia-fashion.my
6165,vibbo.com
6214,rtbf.be
6389,wday.ru
6504,oeker.net
6551,p30world.com
6592,groupon.co.uk
6812,htcmania.com
6862,ig.com
6932,linkmyc.com
7043,converto.io
7188,actstudent.org
7344,medleyads.com
7404,filmeserialeonline.org
7440,jiji.ng
7442,flyflv.com
7448,desiserials.org
7497,barclaycard.co.uk
7535,excelhome.net
7557,toster.ru
7616,ultrasawt.com
7629,almowaten.net
7740,cs.money
7751,vodafone.es
7812,newatlas.com
7830,xiaoman.cn
7876,twilio.com
7884,crazygames.com
7927,gazeteoku.com
7972,bookfi.net
8035,wa.gov.au
8331,yasour.org
8397,realoem.com
8421,brobible.com
8425,xvideosx.com.br
8445,elderscrollsonline.com
8504,animesonlinebr.com.br
8511,feemoo.com
8524,m3.com
8578,text.ru
8592,axszd.pro
8636,occ.com.mx
8673,adscale.de
8695,xtec.cat
8717,bitrix24.com
8812,everydaylookup.com
8846,vippers.jp
8861,default-search.net
8887,kakakumag.com
8888,hdfilme.tv
9034,unblocked.lol
9037,priyo.com
9120,nielit.gov.in
9132,netbeans.org
9164,boe.es
9279,ge.com
9286,uts.edu.au
9410,jobsite.co.uk
9411,kurier.at
9469,twoptrip.com
9595,epfl.ch
9717,vaughnlive.tv
9733,jamanetwork.com
9745,dragonballtime.tv
9751,chevrolet.com
9835,searchmgr.com
9849,dillards.com
9854,pireaspress.gr
9869,isro.gov.in
9874,e-chords.com
9907,readmanga.today
9914,mytube.uz
9916,vc.ru
10269,decathlon.it
10280,calibre-ebook.com
11121,kleiderkreisel.de
11544,7mm.tv
11579,jeuneafrique.com
11997,btanv.com
12062,mr-johal.com
12309,gtaforums.com
12524,anime1.me
12646,hdfcsec.com
13222,reliefweb.int
13630,downace.com
13925,zhangw8.com
14164,securebanklogin.com
14647,milfmovs.com
14974,zaobao.com.sg
16265,frontgatetickets.com
16358,unirioja.es
16880,oikotie.fi
17275,pcmax.jp
17306,kinobar.cc
17471,apycomm.com
18388,colfinancial.com
18460,telnavi.jp
18623,wheretoget.it
18652,owasp.org
18868,css88.com
19723,clipcake.com
19725,generalassemb.ly
20898,atube.me
21367,forbes.com.mx
21402,encar.com
21603,newsok.com
21742,mel.fm
22490,720yun.com
22935,tn.edu.tw
23125,baginya.org
24815,vertbaudet.fr
25089,uca.es
25701,businesslive.co.za
25889,cinepop.com.br
26382,vidhya360.in
26449,pia.co.jp
26724,quicksprout.com
26887,onlinedoctranslator.com
27255,itu.int
27331,jacquielawson.com
27817,mywebgrocer.com
28013,estrepublicain.fr
28332,dtic.mil
28457,cybercoders.com
28765,jeja.gdn
28844,etherdelta.github.io
28846,tanga.com
28912,pichak.net
29127,hubfiles.pw
29988,echo360.org
30874,xn--e1aaowadjh.org
31231,dansdeals.com
31303,5h.com
31884,affifix.com
32228,globalcitizen.org
32288,advertimes.com
32316,unimore.it
33610,espnfc.co.uk
34067,weddingday.com.tw
34111,ird.gov.hk
34433,fjcdn.com
34459,ostfilm.org
34560,docplayer.ru
34724,mipt.ru
37179,fontriver.com
37414,uaewomen.net
37695,qwintry.com
39016,feeder.co
40862,lsgkerala.gov.in
41232,whosmall.com
42173,yoola.com
42390,japanese-orgasm.com
42444,supersport.hr
42514,ku.ac.ke
42925,compathy.net
43700,dyguo.com
43885,liulishuo.com
43911,2yxa.mobi
44318,cloud-card.info
44525,kyoko-np.net
44943,recwebcam.com
45223,peliculashdmega.net
45903,kinozed.com
46039,javhard.net
46889,learnfiles.com
47167,schlaukopf.de
47356,twitter.biz
48681,km.com
49603,mnntv.ru
49855,whompcomic.com
50199,clip.rs
51983,super01.cc
52187,trendolizer.com
52204,nissan.in
53207,cjhellodirect.com
53238,rusporno.tv
53397,bazaraki.com
53448,psmag.com
53917,vcahospitals.com
54569,nkj.ru
55074,d-maps.com
56044,mailinblack.com
56177,gameduell.fr
58028,az.pl
58473,xuannaer.com
59272,bequgezw.com
59661,chinahorseracing.org
60314,rapidotorrents.net
60521,deeplearningbook.me
60823,drragqvk.bid
61312,sokolov.ru
61691,010bcd.com
61996,southernct.edu
62487,esetube.com
63421,teachingamericanhistory.org
63763,cnhan.com
63870,shushu8.com
64132,51daifu.com
64214,ross-tech.com
64702,nat789.biz
65356,deftpowerful.com
65516,troy.edu
65557,viblo.asia
66526,sojump.hk
66555,watchformytechstuff.com
66777,modiresite.com
66820,vbb.de
67292,univerno.org
67296,esysco.net
67932,cumswallowingmovies.org
68404,cuteforeigngirls.com
68876,inforge.net
69053,usplastic.com
69504,e-earphone.blog
70621,hach.com
70720,telecharger-gratuite.net
70770,freelancer.co.uk
70966,hvatit-bolet.ru
71229,arubabusiness.it
71582,xoso.com.vn
72647,applian.com
72849,gfxanime.com
73228,dresk.ru
73535,todoautos.com.pe
73654,alteryx.com
73723,karung.in
74200,solinguainglesa.com.br
74245,otpercpiheno.blogspot.hu
75107,blackstone.com
75636,adultvideotop.com
75842,chinahighway.com
75966,prival-zapisi.com
76317,trumpexcel.com
77405,remotemouse.net
77550,irbis-nbuv.gov.ua
77614,pressofatlanticcity.com
81052,windowsdefender.info
81520,angelbackoffice.com
83391,doe.go.th
83961,pagibigfundservices.com
84722,gobalnews.com
85103,planetaskazok.ru
85858,una.br
85953,rrc.ca
86402,geoenciclopedia.com
86425,bettermarks.com
86903,boschtools.com
87632,flippity.net
87719,ngasih.com
89362,jackinthebox.com
90062,sp-today.com
90543,snowpeak.co.jp
90572,aeonmobile.jp
90943,441mi.net
92060,seafile.com
92633,petwave.com
92756,s-ul.eu
93640,veoverde.com
94597,gfleaks.com
94918,zeit-zum-aufwachen.blogspot.de
95064,yourei.jp
95069,pcdaopune.gov.in
95416,magcloud.com
95537,landrover.it
95593,chuckecheese.com
95819,lk21.me
96536,nubip.edu.ua
96820,cbn.net.id
96827,vb.kg
97370,alzashop.com
99094,zaojingfan.com
99519,bywinners.men
99920,arcadia.edu
100166,parisbytrain.com
101985,gomerblog.com
109191,welcome2japan.cn
109277,tanjand.livejournal.com
110936,f-navigation.jp
113027,avije.org
120796,4uroffer.com
122616,9b9b9b.com
122681,jshint.com
123468,giclub.tv
125720,hrpro.co.jp
127214,secretsearchenginelabs.com
127364,newspathnow.com
131045,bedavapornoizle.xn--t60b56a
132161,musicatos.rocks
134010,heraldonline.com
135551,smartpixmedia.com
136041,arsplus.ru
143209,carrosnaserra.com.br
149570,rodobens.com.br
151549,adonai.pl
157881,doruby.jp
158615,torrentso.org
161880,paypalinc.com
165342,realquest.com
165972,tireweb.com
174715,xmlwizard.com
189512,typenetwork.com
193879,sehatki.com
202156,vulkk.com
213791,readingielts.com
218640,kamdora.com
232467,influencer.uk
236084,prepaid-sim.jp
238969,multecase.ro
254908,nationaljournal.ru
255152,from.ae
262402,jq-school.com
277059,pcmatic.com
278119,twisto.fr
280248,freshsexpics.com
281594,news-ontime.ru
288195,sarcasticpost.com
290634,gistech.ir
291603,notsubscene.us
294146,ayurvedmart.com
316783,aquarium.gr.jp
328371,allposters.co.jp
328844,iris-pet.com
330636,slutroulettelive.org
331283,kaomojis.net
332643,fantasticbabyotaku.blogspot.mx
335595,cleansezone.com
335782,managementconcepts.com
343349,tt-ej.ir
344538,fashion-likes.ru
347065,tameproduccionesweb.blogspot.pe
347526,nrc.ac.uk
347856,hustlercash.com
361157,netlingo.com
365068,myuwell.com
371690,kvstore.it
376406,xianhua.cn
379649,loteriasdepuertorico.com
382895,playmonster.com
384461,xmovies.im
400740,baristanet.com
401432,kamogawa-seaworld.jp
404107,llnyc.com
404120,biznes-stil.ru
413458,jinekolognet.com
419412,willleathergoods.com
421030,jntuhceh.ac.in
422806,iboom.biz
428401,startuptimes.jp
430687,ranking.com
431796,neobola.club
433970,smirnova-tatjana.ru
443544,anoiadiari.cat
447191,hgo.se
455518,gosione.net
457194,firstcall-blog-free.azurewebsites.net
466961,sikhsiyasat.info
467739,britishcondoms.uk
467828,extratipp.com
469033,fujissl.jp
483628,6543210.ru
485634,store-charms.com
489672,trokiss-gamer.com
496407,gadgetdetail.com
499284,malvik.cz
510536,vkapuste.ru
516156,dimetris.com.ua
530158,gitd.gov.pl
533296,prakunrod.com
534187,roamler.com
534504,ezlearn2u.my
544030,nudegirlslut.com
545091,designsparkle.com
551663,andreicismaru.ro
552004,osfcu.com
552086,xxxpornoitaliano.com
564142,mydescendantsancestors.com
564367,gamingbad.com
566515,dencohappel.com
567605,coronacigar.com
569012,earthcamtv.com
570327,pokerstarscashier.com
571938,chitsol.com
577951,glamagic.com
583008,revitapidocs.com
583667,koikei.com
591008,ultimate-tattoo-supply.myshopify.com
593318,fuel-efficient-vehicles.org
593862,fragrantica.nl
595802,monouso.es
601214,kawahara.ac.jp
606994,sharefaithgiving.com
608772,kanehara-shuppan.co.jp
611658,metabans.com
625105,smolovjr.com
633070,patentoffice.ir
636020,shijyukukai.jp
640936,direct-abris.com
642207,amusicaportuguesa.blogs.sapo.pt
643556,outbid.io
653150,fixmygps.info
656085,courseprogress.co.uk
656481,museeplatinum-af.com
659923,registercompany.co.za
664675,iba.com.br
673112,vaginismus.com
681823,bossham.ru
683389,webatelie.ir
684327,subitoriparo.com
691312,dolomitemountains.com
704538,dogalcilt.com
705597,cignattkonline.in
714073,crazyshoppingworld.com
719087,phimvsub.com
722548,fullcode.vn
729388,cicloscabello.com
732259,xxxbladowxxx.tumblr.com
733117,appure.io
734187,legislationline.org
740806,subwayfilms.net
742496,mykomputers.ru
744069,libnotes.org
745206,taoshuke.cn
749704,dprcdn.net
752926,linkbooster.top
753699,comapping.com
763254,tbt-sps.gov.cn
769600,eos.org.eg
779866,dental-treatment-guide.com
780416,dirtystraightguys.tumblr.com
786559,readingschools.org
787489,stainkediri.ac.id
791840,bandorg.no
794005,bank-oeffnungszeiten.de
800113,therealchamps.com
802853,hend24.com
815097,mensstyle.com.au
819607,eternal-group.com
823562,epsnj.org
824601,denimblog.com
837823,flashkids.com
842825,latinasbeastsex.com
845547,juhanlee.ca
845594,quiz-competition.com
846653,kaklik.com
848730,theuslife.net
849663,dalostuzep.hu
849903,agentcyprus.com
856142,ijplth.com
861373,invntree.com
868501,i2b.at
869568,solicitor-ferret-78063.netlify.com
877089,funddreamer.com
880396,privatemomsvideos.com
882758,nmmst.gov.tw
882970,apirx.com
897009,kotonoha.cc
899885,nudebabes.me
903655,seksprice.com
913444,zvas.info
914036,transportesenegocios.pt
918815,thaiwatersystem.com
932432,dergachev.ru
936543,moisha-liberman.livejournal.com
938930,coinfaucet.eu
944246,globalmutualaid.com
946187,palmersrelocations.com.au
949594,hospitalmanagement.net
955329,connectdoor.de
963423,noemata.net
969803,118sicilia.it
977122,cinemamakeup.com
979041,mojerakusko.sk
983513,indogrosir.co.id
